<svg width="12" height="11" viewBox="0 0 12 11" fill="none" xmlns="http://www.w3.org/2000/svg">
<path d="M12 2.21004L10.59 0.790039L4 7.38004L1.42 4.81004L-2.28882e-07 6.22004L4 10.21L12 2.21004Z" fill="#444444"/>
</svg>
