<svg width="219" height="69" viewBox="0 0 219 69" fill="none" xmlns="http://www.w3.org/2000/svg">
<path fill-rule="evenodd" clip-rule="evenodd" d="M29.3995 31.9667L35.8728 37.1963L30.5041 30.7126L83.7417 28.054L31.3389 27.0507L36.8618 20.0654L29.4509 25.9471L27.4344 8.10142L25.6234 25.5333L19.4584 21.3321L24.0179 26.9378L0.128439 28.7813C0.128439 28.8817 23.029 30.5371 24.9941 30.7252L21.3079 35.6914L25.6363 32.5562L27.4601 51.0916L29.3995 31.9667Z" fill="#343434"/>
<path fill-rule="evenodd" clip-rule="evenodd" d="M0 28.0665L14.7447 27.0507L18.8676 4.45202L0 28.0665Z" fill="#343434"/>
<path fill-rule="evenodd" clip-rule="evenodd" d="M41.6782 69L5.74119 29.8348L0.282563 29.6341L29.9389 58.3653L6.58888 36.9455L3.54489 42.0872L41.6782 69Z" fill="#343434"/>
<path fill-rule="evenodd" clip-rule="evenodd" d="M69.3952 27.0382L83.716 27.289L63.898 4.27645L69.3952 27.0382Z" fill="#343434"/>
<path fill-rule="evenodd" clip-rule="evenodd" d="M34.0618 19.5136L40.381 16.6418L33.5994 25.9597L54.2009 25.8969L41.6654 13.494L34.0618 19.5136Z" fill="#343434"/>
<path fill-rule="evenodd" clip-rule="evenodd" d="M32.6875 19.614C33.9205 18.874 41.1516 11.6756 41.4727 11.6756C41.9993 11.6756 49.8597 20.0529 51.401 20.9809L42.0507 0L32.6875 19.614Z" fill="#343434"/>
<path fill-rule="evenodd" clip-rule="evenodd" d="M17.7373 13.795L16.8126 20.542L18.9703 17.9836L24.9299 22.0971L27.4986 3.16031L28.4619 9.74428L28.6931 0.589424L17.7373 13.795Z" fill="#343434"/>
<path fill-rule="evenodd" clip-rule="evenodd" d="M73.4667 29.1827L66.4668 29.4209L42.9626 66.5169L73.4667 29.1827Z" fill="#343434"/>
<path fill-rule="evenodd" clip-rule="evenodd" d="M65.0411 13.9329L55.2541 2.88441L54.9716 26.7748L68.8044 26.7623L65.0411 13.9329Z" fill="#343434"/>
<path fill-rule="evenodd" clip-rule="evenodd" d="M24.7629 49.1227L13.0493 30.3866L7.92464 30.1358L24.7629 49.1227Z" fill="#343434"/>
<path fill-rule="evenodd" clip-rule="evenodd" d="M41.6397 68.9373L29.7078 33.1205L28.8986 40.2563L41.6397 68.9373ZM29.3995 31.9667L35.8728 37.1963L30.5041 30.7126L83.7417 28.054L31.3389 27.0507L36.8618 20.0654L29.4509 25.9471L27.4344 8.10142L25.6234 25.5333L19.4584 21.3321L24.0179 26.9378L0.128439 28.7813C0.128439 28.8817 23.029 30.5371 24.9941 30.7252L21.3079 35.6914L25.6363 32.5562L27.4601 51.0916L29.3995 31.9667ZM31.3389 34.199L41.6782 62.7421L52.4413 30.0731L41.4727 50.6777L31.3389 34.199Z" fill="#343434"/>
<path fill-rule="evenodd" clip-rule="evenodd" d="M79.7344 41.8866L76.6391 36.3937L41.7424 68.9749L79.7344 41.8866ZM82.8298 29.2579L77.0244 29.6216L41.691 69L82.8298 29.2579ZM63.1274 29.5338L53.8541 29.7972L41.6782 69L63.1274 29.5338Z" fill="#343434"/>
<path d="M114.387 15.488C114.413 15.5382 114.438 15.5758 114.451 15.626C114.438 15.7012 114.438 15.8015 114.413 15.9269C114.4 16.1025 114.387 16.2028 114.387 16.2405C114.387 16.7797 114.4 17.2437 114.451 17.6074C114.438 17.6576 114.413 17.6701 114.349 17.6701C114.323 17.6701 114.284 17.6701 114.233 17.6576C114.194 17.5949 114.117 17.4318 114.015 17.1559C113.938 16.9678 113.809 16.717 113.629 16.4035C113.462 16.09 113.321 15.9019 113.231 15.8768C113.141 15.8392 112.987 15.8266 112.782 15.8266L112.062 15.8141C111.96 15.8015 111.844 15.8015 111.728 15.8015L110.765 15.8141H109.969C109.853 15.8141 109.686 15.8266 109.494 15.8517L109.455 17.8206C109.455 18.0589 109.481 18.5104 109.519 19.1625V19.3255L109.532 19.639C109.545 19.614 109.828 19.6014 110.354 19.5889L110.662 19.5638C110.945 19.5513 111.266 19.5387 111.626 19.5387C112.448 19.5387 113.128 19.614 113.655 19.7645C114.169 19.9149 114.593 20.2034 114.914 20.6298C115.222 21.0687 115.389 21.608 115.389 22.2601C115.389 23.0878 115.016 23.7775 114.259 24.3544C113.514 24.9188 112.55 25.2072 111.369 25.2072H110.187L109.828 25.2197C109.442 25.2323 109.108 25.2448 108.826 25.2448L107.143 25.2574C106.938 25.2574 106.758 25.2448 106.617 25.2323C106.604 25.1947 106.604 25.1696 106.604 25.1445C106.604 25.0316 106.681 24.9564 106.822 24.9313C107.49 24.7934 107.875 24.693 107.965 24.6429C108.055 24.5802 108.119 24.4422 108.158 24.2165C108.184 23.9782 108.209 23.5267 108.209 22.837L108.184 21.9466L108.158 18.5856L108.132 17.0932V16.7045C108.132 16.3533 108.106 16.1276 108.042 16.0273C107.991 15.9395 107.811 15.8768 107.541 15.8517C107.13 15.8141 106.732 15.7388 106.347 15.6385C106.295 15.5758 106.283 15.5006 106.283 15.4253H107.105L109.532 15.488L110.328 15.4378L111.51 15.4253C111.626 15.4253 111.754 15.4378 111.857 15.4378L112.409 15.488L113.527 15.4504L113.655 15.5006L114.31 15.4504C114.336 15.4629 114.361 15.4755 114.387 15.488ZM109.519 20.0905L109.506 20.9057C109.506 22.7617 109.532 23.8026 109.596 24.0409C109.648 24.2792 109.802 24.4673 110.059 24.6178C110.303 24.7557 110.752 24.831 111.394 24.831C112.088 24.831 112.692 24.5927 113.218 24.1287C113.732 23.6521 114.002 23.0878 114.002 22.4106C114.002 21.6832 113.745 21.0938 113.231 20.6799C112.73 20.2535 112.024 20.0404 111.112 20.0404L110.393 20.0529L109.699 20.078C109.635 20.078 109.571 20.078 109.519 20.0905ZM116.468 15.4002C116.571 15.3877 116.622 15.3751 116.66 15.3751C116.827 15.3751 117.123 15.3877 117.534 15.4253C117.752 15.4378 117.893 15.4378 117.97 15.4378C118.086 15.4378 118.33 15.4253 118.715 15.4002L120.051 15.325C120.398 15.2999 120.809 15.2748 121.271 15.2748C122.106 15.2748 122.761 15.4002 123.249 15.626C123.737 15.8517 124.11 16.2154 124.38 16.6919C124.636 17.181 124.778 17.6701 124.778 18.1467C124.778 18.9493 124.482 19.6516 123.904 20.241C123.326 20.8179 122.556 21.1063 121.567 21.1063C121.297 21.1063 121.066 21.0812 120.886 21.0311C120.706 20.9809 120.488 20.8681 120.257 20.7176C120.154 20.6549 120.09 20.5796 120.077 20.5169C120.09 20.4793 120.128 20.4542 120.154 20.4291C120.231 20.4291 120.308 20.4542 120.385 20.4793C120.565 20.542 120.796 20.5796 121.066 20.5796C121.477 20.5796 121.875 20.4793 122.247 20.2786C122.62 20.078 122.89 19.7895 123.082 19.4258C123.275 19.0496 123.365 18.6609 123.365 18.247C123.365 17.8457 123.262 17.4569 123.069 17.0807C122.864 16.7045 122.607 16.4035 122.286 16.1778C122.106 16.0523 121.824 15.9395 121.438 15.8517C121.066 15.7639 120.77 15.7263 120.552 15.7263C119.91 15.7263 119.525 15.7639 119.409 15.8642L119.396 15.9646L119.422 16.8424L119.409 16.9929C119.396 17.1309 119.396 17.3441 119.396 17.6325C119.396 18.6734 119.409 19.3255 119.448 19.5889V20.0153L119.537 23.5393C119.537 23.5894 119.537 23.6898 119.525 23.8277C119.512 23.9657 119.499 24.0911 119.499 24.1914C119.499 24.4422 119.525 24.6178 119.563 24.7557C119.692 24.7934 120.064 24.8686 120.668 25.0065C120.95 25.0693 121.104 25.1069 121.13 25.1194C121.169 25.132 121.207 25.1696 121.233 25.2197C121.22 25.295 121.194 25.3452 121.156 25.3702C121.117 25.3953 121.053 25.3953 120.95 25.3953C120.886 25.3953 120.745 25.3828 120.514 25.3577C120.064 25.3075 119.704 25.295 119.448 25.295L118.073 25.3577L117.238 25.3326C117.187 25.3326 117.033 25.3452 116.789 25.3577L116.776 25.1445L117.804 24.9564C117.97 24.9062 118.073 24.8561 118.112 24.8184C118.163 24.7432 118.189 24.6052 118.189 24.392C118.189 24.3419 118.189 24.2416 118.189 24.0911C118.202 23.9782 118.202 23.8402 118.202 23.6396C118.202 23.0376 118.176 21.7459 118.137 19.7645C118.112 18.8364 118.099 17.8959 118.099 16.9428V16.8048C118.099 16.4411 118.048 16.2028 117.932 16.1025C117.739 15.9395 117.251 15.8015 116.468 15.6887C116.442 15.626 116.429 15.5883 116.429 15.5507C116.429 15.5006 116.442 15.4504 116.468 15.4002ZM134.295 16.4662C134.269 16.1276 134.244 15.9269 134.192 15.8768C134.154 15.8392 133.948 15.789 133.563 15.7514L133.306 15.7137C133.203 15.7012 133.126 15.6887 133.049 15.6761C133.023 15.6009 133.011 15.5131 133.011 15.4128C133.19 15.3877 133.306 15.3751 133.357 15.3751L134.385 15.4253C134.513 15.4378 134.86 15.4378 135.425 15.4378C135.656 15.4378 136.132 15.4128 136.851 15.3751C136.851 15.4755 136.838 15.5633 136.812 15.6385C136.671 15.7012 136.44 15.7514 136.106 15.789C135.849 15.8141 135.682 15.8517 135.618 15.9144C135.554 15.9771 135.528 16.1652 135.528 16.4787V16.8299L135.541 18.2721L135.515 18.9869L135.528 20.3163L135.502 21.633L135.528 22.7617C135.528 23.903 135.554 24.5175 135.618 24.5927C135.682 24.6679 135.9 24.7432 136.26 24.8059C136.645 24.8937 136.864 24.9564 136.954 25.0065C137.031 25.0442 137.069 25.1194 137.069 25.2197C137.069 25.2323 137.056 25.2699 137.031 25.3075C137.018 25.3201 137.005 25.3201 136.992 25.3201C136.967 25.3201 136.928 25.3201 136.889 25.3075C136.324 25.1947 135.721 25.1445 135.117 25.1445C134.411 25.1445 133.614 25.2072 132.741 25.3326C132.728 25.2699 132.728 25.2197 132.728 25.1821C132.728 25.1445 132.728 25.0943 132.741 25.0316C132.882 24.9438 133.139 24.8686 133.512 24.831C134.025 24.7808 134.295 24.5676 134.295 24.1788V22.7993L134.308 22.4733L134.295 17.0556L131.277 20.3664C131.02 20.6674 130.699 21.0185 130.313 21.4324C129.915 21.8588 129.504 22.3479 129.08 22.8871L128.425 23.6898C128.425 24.0534 128.451 24.2917 128.49 24.4297C128.528 24.5676 128.579 24.6554 128.644 24.6805C128.708 24.7181 128.888 24.7557 129.17 24.8059C129.556 24.8937 129.787 24.9564 129.864 25.0065C129.941 25.0442 129.979 25.1194 129.979 25.2197C129.979 25.2323 129.967 25.2699 129.954 25.3075C129.928 25.3201 129.915 25.3201 129.902 25.3201C129.89 25.3201 129.851 25.3201 129.812 25.3075C129.235 25.1947 128.644 25.1445 128.014 25.1445C127.321 25.1445 126.524 25.2072 125.638 25.3326C125.638 25.2699 125.638 25.2197 125.638 25.1821C125.638 25.1445 125.638 25.0943 125.638 25.0316C125.792 24.9438 126.036 24.8686 126.422 24.831C126.935 24.7808 127.192 24.5676 127.192 24.1788L127.18 23.0753L127.205 22.7993V22.4607L127.192 21.6832L127.18 20.7677V18.1467C127.18 17.3064 127.18 16.7421 127.18 16.4662C127.167 16.1903 127.154 16.0147 127.128 15.9646C127.102 15.9019 127.064 15.8517 127.038 15.8392C127 15.8141 126.807 15.789 126.46 15.7388L126.203 15.7012C126.101 15.7012 126.024 15.6761 125.947 15.6636C125.921 15.6009 125.908 15.5131 125.908 15.4128C126.088 15.3877 126.203 15.3751 126.255 15.3751L127.282 15.4253C127.411 15.4378 127.757 15.4378 128.323 15.4378C128.567 15.4378 129.042 15.4128 129.774 15.3751C129.774 15.4755 129.761 15.5633 129.735 15.6385C129.594 15.7137 129.35 15.7514 129.016 15.789C128.734 15.8141 128.567 15.8517 128.502 15.9144C128.451 15.9896 128.425 16.1652 128.425 16.4787V16.8424L128.438 18.2846L128.425 18.9995V20.3288L128.413 21.6456L128.425 23.1003L129.89 21.3822L130.994 20.1658L132.458 18.548C133.126 17.8332 133.73 17.1434 134.295 16.4662ZM142.605 16.4537C142.053 17.5698 141.5 19.0622 140.922 20.9558L140.601 21.8337L139.805 24.2165C139.741 24.392 139.702 24.5049 139.702 24.5802C139.702 24.6178 139.728 24.7056 139.779 24.8059C139.933 24.8686 140.255 24.9062 140.717 24.9438C140.833 24.9438 141.038 24.9689 141.308 24.994C141.372 25.0316 141.398 25.0818 141.398 25.1194C141.398 25.157 141.385 25.1947 141.372 25.2448L140.833 25.2574C140.409 25.2574 139.921 25.2323 139.368 25.1947L138.816 25.1821L138.071 25.2323C137.981 25.2448 137.917 25.2574 137.853 25.2574C137.711 25.2574 137.544 25.2448 137.365 25.2323C137.365 25.1445 137.378 25.0693 137.39 25.0191C137.467 24.9689 137.532 24.9438 137.596 24.9438C138.2 24.9438 138.598 24.8811 138.777 24.7683C138.957 24.6429 139.163 24.3544 139.368 23.8904C139.574 23.4264 139.921 22.5485 140.383 21.2568L140.768 20.2912L141.5 18.2721C141.513 18.247 141.693 17.7955 142.027 16.9302C142.361 16.0523 142.605 15.3877 142.746 14.9362L142.965 14.9237C143.054 14.9362 143.144 14.9362 143.234 14.9362C143.273 14.9488 143.722 16.0524 144.57 18.2595C145.418 20.4542 146.034 22.1347 146.445 23.2884C146.651 23.8528 146.805 24.2039 146.869 24.3419C146.946 24.4798 147.01 24.5802 147.075 24.6178C147.139 24.6679 147.319 24.7181 147.601 24.7808C147.653 24.7934 147.768 24.831 147.922 24.8811L148.243 24.994C148.269 25.0567 148.269 25.0943 148.269 25.132C148.269 25.157 148.269 25.1947 148.256 25.2448L147.897 25.2574L146.484 25.2323L145.598 25.1947L144.75 25.2574C144.377 25.2574 144.133 25.2323 144.043 25.1821C144.043 25.1069 144.056 25.0191 144.082 24.9564C144.121 24.9062 144.403 24.8686 144.891 24.8435C145.264 24.831 145.495 24.7934 145.585 24.7432C145.61 24.6554 145.636 24.5802 145.636 24.53C145.636 24.4422 145.559 24.2039 145.431 23.8152C145.341 23.5643 145.251 23.3135 145.187 23.0753C145.148 23 144.865 22.2476 144.326 20.8179C143.787 19.3757 143.337 18.2094 142.952 17.319L142.682 16.5916C142.669 16.5665 142.643 16.5164 142.605 16.4537ZM153.535 16.4537C152.983 17.5698 152.43 19.0622 151.852 20.9558L151.531 21.8337L150.735 24.2165C150.671 24.392 150.632 24.5049 150.632 24.5802C150.632 24.6178 150.658 24.7056 150.709 24.8059C150.864 24.8686 151.185 24.9062 151.647 24.9438C151.763 24.9438 151.968 24.9689 152.238 24.994C152.302 25.0316 152.328 25.0818 152.328 25.1194C152.328 25.157 152.328 25.1947 152.302 25.2448L151.763 25.2574C151.339 25.2574 150.851 25.2323 150.298 25.1947L149.746 25.1821L149.001 25.2323C148.924 25.2448 148.847 25.2574 148.783 25.2574C148.642 25.2574 148.487 25.2448 148.295 25.2323C148.295 25.1445 148.308 25.0693 148.32 25.0191C148.398 24.9689 148.462 24.9438 148.526 24.9438C149.13 24.9438 149.528 24.8811 149.708 24.7683C149.9 24.6429 150.093 24.3544 150.298 23.8904C150.504 23.4264 150.851 22.5485 151.313 21.2568L151.698 20.2912L152.443 18.2721C152.443 18.247 152.623 17.7955 152.957 16.9302C153.291 16.0523 153.535 15.3877 153.676 14.9362L153.895 14.9237C153.985 14.9362 154.074 14.9362 154.164 14.9362C154.203 14.9488 154.652 16.0524 155.5 18.2595C156.348 20.4542 156.977 22.1347 157.375 23.2884C157.594 23.8528 157.735 24.2039 157.799 24.3419C157.876 24.4798 157.953 24.5802 158.005 24.6178C158.069 24.6679 158.249 24.7181 158.531 24.7808C158.583 24.7934 158.698 24.831 158.852 24.8811L159.173 24.994C159.199 25.0567 159.212 25.0943 159.212 25.132C159.212 25.157 159.199 25.1947 159.186 25.2448L158.827 25.2574L157.414 25.2323L156.528 25.1947L155.68 25.2574C155.307 25.2574 155.063 25.2323 154.974 25.1821C154.974 25.1069 154.986 25.0191 155.012 24.9564C155.063 24.9062 155.333 24.8686 155.834 24.8435C156.194 24.831 156.425 24.7934 156.515 24.7432C156.553 24.6554 156.566 24.5802 156.566 24.53C156.566 24.4422 156.489 24.2039 156.361 23.8152C156.271 23.5643 156.194 23.3135 156.117 23.0753C156.091 23 155.808 22.2476 155.269 20.8179C154.717 19.3757 154.267 18.2094 153.882 17.319L153.612 16.5916C153.599 16.5665 153.574 16.5164 153.535 16.4537ZM168.434 16.4662C168.408 16.1276 168.383 15.9269 168.331 15.8768C168.293 15.8392 168.087 15.789 167.702 15.7514L167.445 15.7137C167.342 15.7012 167.265 15.6887 167.188 15.6761C167.162 15.6009 167.149 15.5131 167.149 15.4128C167.329 15.3877 167.445 15.3751 167.496 15.3751L168.537 15.4253C168.652 15.4378 168.999 15.4378 169.564 15.4378C169.795 15.4378 170.271 15.4128 170.99 15.3751C170.99 15.4755 170.977 15.5633 170.951 15.6385C170.81 15.7012 170.579 15.7514 170.245 15.789C169.988 15.8141 169.821 15.8517 169.757 15.9144C169.693 15.9771 169.667 16.1652 169.667 16.4787V16.8299L169.68 18.2721L169.654 18.9869L169.667 20.3163L169.641 21.633L169.667 22.7617C169.667 23.903 169.693 24.5175 169.757 24.5927C169.821 24.6679 170.039 24.7432 170.399 24.8059C170.784 24.8937 171.003 24.9564 171.093 25.0065C171.17 25.0442 171.208 25.1194 171.208 25.2197C171.208 25.2323 171.195 25.2699 171.17 25.3075C171.157 25.3201 171.144 25.3201 171.131 25.3201C171.105 25.3201 171.067 25.3201 171.028 25.3075C170.463 25.1947 169.86 25.1445 169.256 25.1445C168.549 25.1445 167.753 25.2072 166.88 25.3326C166.867 25.2699 166.867 25.2197 166.867 25.1821C166.867 25.1445 166.867 25.0943 166.88 25.0316C167.021 24.9438 167.278 24.8686 167.65 24.831C168.164 24.7808 168.434 24.5676 168.434 24.1788V22.7993L168.447 22.4733L168.434 17.0556L165.416 20.3664C165.159 20.6674 164.838 21.0185 164.452 21.4324C164.054 21.8588 163.656 22.3479 163.219 22.8871L162.564 23.6898C162.564 24.0534 162.59 24.2917 162.628 24.4297C162.667 24.5676 162.718 24.6554 162.783 24.6805C162.847 24.7181 163.027 24.7557 163.309 24.8059C163.695 24.8937 163.926 24.9564 164.003 25.0065C164.08 25.0442 164.118 25.1194 164.118 25.2197C164.118 25.2323 164.106 25.2699 164.093 25.3075C164.067 25.3201 164.054 25.3201 164.054 25.3201C164.028 25.3201 163.99 25.3201 163.951 25.3075C163.373 25.1947 162.783 25.1445 162.153 25.1445C161.46 25.1445 160.663 25.2072 159.777 25.3326C159.777 25.2699 159.777 25.2197 159.777 25.1821C159.777 25.1445 159.777 25.0943 159.777 25.0316C159.931 24.9438 160.175 24.8686 160.561 24.831C161.074 24.7808 161.331 24.5676 161.331 24.1788L161.318 23.0753L161.344 22.7993V22.4607L161.331 21.6832L161.318 20.7677V18.1467C161.318 17.3064 161.318 16.7421 161.318 16.4662C161.306 16.1903 161.293 16.0147 161.267 15.9646C161.241 15.9019 161.203 15.8517 161.177 15.8392C161.139 15.8141 160.946 15.789 160.599 15.7388L160.342 15.7012C160.24 15.7012 160.162 15.6761 160.085 15.6636C160.06 15.6009 160.047 15.5131 160.047 15.4128C160.227 15.3877 160.342 15.3751 160.394 15.3751L161.421 15.4253C161.55 15.4378 161.896 15.4378 162.462 15.4378C162.706 15.4378 163.181 15.4128 163.913 15.3751C163.913 15.4755 163.9 15.5633 163.874 15.6385C163.733 15.7137 163.489 15.7514 163.155 15.789C162.872 15.8141 162.706 15.8517 162.641 15.9144C162.59 15.9896 162.564 16.1652 162.564 16.4787V16.8424L162.577 18.2846L162.564 18.9995V20.3288L162.551 21.6456L162.564 23.1003L164.028 21.3822L165.133 20.1658L166.597 18.548C167.265 17.8332 167.869 17.1434 168.434 16.4662ZM171.529 24.994C171.606 24.9438 171.671 24.9313 171.735 24.9313H171.915C171.953 24.9313 172.004 24.9188 172.107 24.9188C172.505 24.8811 172.749 24.8435 172.814 24.8059C172.993 24.7181 173.16 24.5425 173.289 24.3043C173.559 23.7775 173.867 23.0376 174.214 22.0845C174.368 21.6205 174.47 21.3446 174.509 21.2443C174.65 20.9433 174.779 20.6172 174.894 20.2786L175.626 18.2595C175.742 17.9335 176.025 17.2061 176.461 16.0649C176.577 15.789 176.705 15.4002 176.859 14.9237L177.116 14.8986L177.386 14.9111C177.617 15.3501 177.81 15.8141 177.99 16.3283C178.08 16.5916 178.234 16.9929 178.452 17.5196L179.647 20.6925L180.289 22.4106C180.623 23.3888 180.841 23.9907 180.957 24.2165C181.059 24.4422 181.149 24.5927 181.239 24.6679C181.265 24.6805 181.368 24.7181 181.535 24.7557C181.702 24.7934 181.83 24.831 181.894 24.8435C182.138 24.9188 182.305 24.9689 182.395 25.0065C182.421 25.0693 182.434 25.1069 182.434 25.1445C182.434 25.1696 182.421 25.1947 182.408 25.2448C182.241 25.2574 182.125 25.2574 182.048 25.2574C181.779 25.2574 181.316 25.2574 180.635 25.2448L179.852 25.2323H178.889C178.825 25.2323 178.76 25.2323 178.696 25.2323C178.632 25.2323 178.58 25.2323 178.529 25.2323H178.362C178.298 25.2197 178.247 25.2072 178.195 25.1821C178.195 25.1069 178.208 25.0316 178.234 24.9689C178.298 24.9313 178.362 24.9188 178.414 24.9062L179.223 24.8561C179.428 24.8435 179.595 24.8184 179.711 24.7683C179.736 24.6805 179.749 24.6052 179.749 24.5676C179.749 24.4673 179.685 24.229 179.544 23.8402C179.454 23.5769 179.377 23.3386 179.3 23.1003C179.223 22.8746 178.953 22.0971 178.465 20.8053C178.247 20.7677 178.054 20.7552 177.9 20.7552L176.217 20.7677L175.716 20.7552C175.537 20.7552 175.344 20.7677 175.126 20.7928C175.061 20.9558 175.023 21.0687 174.997 21.1314L174.303 23.2508C174.008 24.066 173.867 24.5175 173.867 24.5927C173.867 24.6429 173.893 24.7181 173.931 24.831C174.047 24.8561 174.188 24.8937 174.381 24.9188L175.447 25.0065C175.511 25.0567 175.537 25.0943 175.537 25.132C175.537 25.157 175.524 25.1947 175.511 25.2448C175.28 25.2574 175.1 25.2574 174.971 25.2574C174.548 25.2574 174.059 25.2323 173.507 25.1947C173.25 25.1821 173.058 25.1821 172.955 25.1821C172.839 25.1821 172.647 25.1821 172.377 25.1947C172.197 25.2072 172.069 25.2072 171.992 25.2072C171.863 25.2072 171.696 25.2072 171.504 25.1821V25.1445C171.504 25.1069 171.516 25.0567 171.529 24.994ZM175.292 20.379C175.845 20.404 176.487 20.4166 177.206 20.4166C177.617 20.4166 177.964 20.404 178.285 20.379C178.234 20.1783 178.169 20.0027 178.092 19.8272C177.758 18.9493 177.566 18.4602 177.527 18.3724L176.821 16.6167L176.731 16.4787C176.705 16.5414 176.59 16.8048 176.384 17.2563C176.05 18.0464 175.819 18.6609 175.678 19.0998C175.601 19.3004 175.536 19.5011 175.459 19.6892C175.382 19.8899 175.344 20.0278 175.318 20.1031C175.305 20.1783 175.28 20.2661 175.241 20.3413L175.292 20.379ZM182.87 25.3702L182.883 25.2072C183.05 25.1069 183.256 25.0442 183.5 25.0191C183.872 24.9689 184.103 24.9313 184.206 24.8811C184.309 24.831 184.373 24.7557 184.412 24.6805C184.489 24.5049 184.527 24.3293 184.527 24.1663L184.501 23.5769L184.514 23.0376L184.501 22.4106C184.501 22.1472 184.502 21.8212 184.527 21.4199C184.54 21.0311 184.553 20.8179 184.553 20.8053V18.6985C184.553 18.3599 184.553 18.0087 184.566 17.62C184.591 17.2312 184.591 16.9678 184.591 16.8173C184.591 16.3784 184.591 16.1151 184.566 16.0398C184.54 15.9771 184.501 15.9269 184.45 15.8893C184.386 15.8642 184.193 15.8266 183.872 15.8141C183.628 15.789 183.461 15.7639 183.358 15.7514C183.333 15.6887 183.32 15.6385 183.32 15.6009C183.32 15.5633 183.32 15.5006 183.333 15.4504C183.461 15.4378 183.551 15.4253 183.628 15.4253L184.36 15.4378C184.887 15.4378 185.452 15.4253 186.043 15.3751C186.338 15.3626 186.775 15.3375 187.353 15.325C187.366 15.3751 187.379 15.4253 187.379 15.4629C187.379 15.5131 187.366 15.5507 187.34 15.5883C187.314 15.6134 187.276 15.626 187.212 15.6385C186.531 15.7012 186.12 15.7765 185.991 15.8893C185.863 16.0022 185.812 16.2781 185.812 16.7296C185.812 17.5573 185.824 18.4226 185.85 19.3004L185.876 20.0153C185.901 20.0404 186.248 20.0654 186.903 20.0905C187.083 20.1031 187.186 20.1156 187.212 20.1156L188.367 20.0905L189.138 20.1156L191.142 20.0529C191.386 20.0529 191.54 20.0404 191.591 20.0278C191.617 19.1374 191.63 18.2721 191.63 17.4444C191.63 16.6418 191.617 16.1652 191.578 16.0273C191.553 15.9395 191.527 15.8768 191.463 15.8517C191.437 15.8392 191.167 15.789 190.654 15.7263C190.564 15.7137 190.474 15.7012 190.397 15.6887C190.371 15.6134 190.358 15.5131 190.358 15.4128C190.538 15.3877 190.654 15.3751 190.692 15.3751L191.219 15.4002C191.694 15.4253 192.182 15.4378 192.657 15.4378C192.966 15.4378 193.479 15.4128 194.199 15.3751C194.199 15.4755 194.186 15.5758 194.16 15.6636C193.967 15.7388 193.723 15.789 193.441 15.8015C193.261 15.8141 193.12 15.8392 192.991 15.8893C192.901 15.9646 192.85 16.1025 192.85 16.3283C192.85 16.3784 192.85 16.4411 192.85 16.4913C192.863 16.6794 192.863 16.8048 192.863 16.855V17.7454L192.876 18.2972L192.85 19.012L192.863 20.3539L192.85 21.608C192.85 21.8588 192.85 22.2601 192.876 22.7868L192.863 23.8277C192.863 24.1788 192.889 24.4171 192.953 24.5676C192.991 24.6429 193.043 24.693 193.12 24.7306L193.749 24.8686C194.07 24.9438 194.263 25.0065 194.314 25.0567C194.378 25.0943 194.417 25.157 194.417 25.2197L194.391 25.3075L194.353 25.3201C194.327 25.3201 194.288 25.3201 194.25 25.3075C193.672 25.1947 193.068 25.1445 192.439 25.1445C191.938 25.1445 191.591 25.157 191.386 25.1696C191.18 25.1821 190.744 25.2448 190.089 25.3326C190.076 25.2699 190.063 25.2197 190.063 25.1947C190.063 25.157 190.076 25.1069 190.089 25.0442C190.256 24.9564 190.512 24.8937 190.859 24.8561C191.129 24.831 191.334 24.7432 191.489 24.6178C191.578 24.5175 191.63 24.3795 191.63 24.2039V23.0878C191.643 22.7617 191.656 22.5736 191.656 22.5485C191.656 22.1096 191.643 21.47 191.63 20.6423C191.617 20.5671 191.578 20.5169 191.54 20.5044C191.399 20.4667 190.705 20.4667 189.446 20.542C189.189 20.5545 189.01 20.5545 188.881 20.5545C188.753 20.5545 188.496 20.5545 188.085 20.542C187.687 20.5294 187.314 20.5169 186.968 20.5169C186.788 20.5169 186.634 20.5294 186.505 20.5294C186.261 20.5294 186.133 20.542 186.107 20.542C185.979 20.542 185.901 20.5545 185.863 20.6047C185.812 20.6549 185.786 20.7426 185.786 20.8555L185.799 21.3948C185.799 21.4826 185.786 21.9591 185.76 22.837C185.747 23.0125 185.747 23.163 185.747 23.2759C185.747 23.9782 185.773 24.4422 185.837 24.6679C185.85 24.7808 185.901 24.8561 185.966 24.8937C186.017 24.9188 186.223 24.9815 186.582 25.0567C186.826 25.1069 187.006 25.157 187.134 25.2072L187.173 25.2824C187.173 25.3075 187.173 25.3326 187.147 25.3452C187.122 25.3702 187.07 25.3828 187.019 25.3828C186.967 25.3828 186.929 25.3828 186.865 25.3828C186.813 25.3828 186.698 25.3702 186.531 25.3702C186.261 25.3702 185.927 25.3452 185.529 25.3326C185.272 25.3075 185.041 25.3075 184.848 25.3075C184.502 25.3075 183.975 25.3201 183.23 25.3577C183.089 25.3702 182.973 25.3702 182.87 25.3702ZM195.11 16.5414L195.432 15.3751C195.457 15.2247 195.483 15.1243 195.521 15.0742C195.56 15.0365 195.599 15.0115 195.65 15.0115C195.74 15.0115 195.843 15.1243 195.971 15.3375C196.061 15.5006 196.125 15.6009 196.189 15.651C196.241 15.6887 196.331 15.7263 196.446 15.7388L196.523 15.7263L196.857 15.7639L198.72 15.789L200.916 15.7765H201.558L202.778 15.7514C202.83 15.7514 202.894 15.7639 202.971 15.7639C203.331 15.8015 203.549 15.8141 203.639 15.8141C203.716 15.8141 203.78 15.789 203.831 15.7388C203.844 15.7137 203.934 15.5507 204.088 15.2247C204.153 15.0867 204.242 15.0115 204.345 15.0115C204.384 15.0115 204.435 15.024 204.499 15.0491C204.525 15.1494 204.538 15.2372 204.538 15.3124L204.525 15.626L204.538 16.2781C204.538 16.4286 204.525 16.9428 204.499 17.7955C204.499 17.8582 204.486 17.9084 204.461 17.9586C204.409 17.9836 204.358 18.0087 204.32 18.0087C204.281 18.0087 204.242 17.9836 204.204 17.946C204.178 17.9084 204.14 17.7955 204.088 17.5949C203.986 17.1434 203.844 16.8173 203.69 16.6167C203.587 16.4913 203.433 16.391 203.241 16.3408C203.048 16.2906 202.573 16.253 201.828 16.253C201.237 16.253 200.8 16.253 200.505 16.253C200.492 16.4662 200.492 16.6543 200.492 16.8173L200.556 21.5954C200.556 21.7835 200.543 22.1472 200.518 22.6739L200.531 23.6898L200.518 24.2666C200.518 24.4422 200.556 24.5676 200.608 24.6429C200.685 24.7181 200.852 24.7934 201.121 24.8686C201.609 24.994 201.931 25.0567 202.098 25.0818C202.2 25.0943 202.277 25.1194 202.342 25.1445V25.3953L201.224 25.3702C200.608 25.3702 200.145 25.3577 199.837 25.3326L198.681 25.3828L197.833 25.4329C197.602 25.4329 197.461 25.4204 197.397 25.4204L197.294 25.3702C197.307 25.2574 197.32 25.1821 197.358 25.1445C197.397 25.1194 197.499 25.0943 197.654 25.0693C197.872 25.0316 198.142 24.9815 198.437 24.9062C198.732 24.831 198.938 24.7432 199.028 24.6679C199.079 24.6178 199.118 24.5425 199.143 24.4297C199.182 24.2039 199.208 23.765 199.208 23.1003V21.7835L199.182 18.9242L199.143 18.3097V16.253C198.81 16.253 198.386 16.253 197.872 16.253C197.114 16.253 196.652 16.3032 196.485 16.391C196.228 16.5289 195.843 16.9428 195.342 17.6074C195.162 17.8708 195.021 17.9962 194.892 17.9962L194.815 17.9711C194.802 17.946 194.789 17.9209 194.789 17.8959C194.789 17.8332 194.828 17.645 194.918 17.3315C195.021 16.9428 195.085 16.6794 195.11 16.5414ZM210.086 15.3626L210.022 15.626L209.046 15.8266C208.751 15.8893 208.558 15.9646 208.468 16.0398C208.378 16.1151 208.314 16.2655 208.288 16.4913C208.25 16.717 208.237 17.1559 208.237 17.8206C208.237 18.0589 208.25 18.5104 208.288 19.1625V19.3255L208.301 19.639C208.789 19.5763 209.496 19.5387 210.395 19.5387C211.885 19.5387 212.873 19.8021 213.387 20.3163C213.901 20.8304 214.158 21.4826 214.158 22.2601C214.158 23.0878 213.785 23.7775 213.028 24.3544C212.283 24.9188 211.319 25.2072 210.138 25.2072H208.956L208.596 25.2197C208.224 25.2323 207.877 25.2448 207.595 25.2448L205.925 25.2574C205.707 25.2574 205.54 25.2448 205.386 25.2323C205.373 25.2072 205.373 25.1821 205.373 25.157C205.373 25.0567 205.45 24.994 205.591 24.9564C206.259 24.831 206.644 24.7306 206.734 24.6679C206.824 24.6178 206.888 24.4673 206.927 24.2416C206.965 24.0033 206.978 23.5518 206.978 22.8621L206.952 21.9591L206.94 18.5856L206.914 17.0807L206.927 16.6919C206.927 16.3408 206.888 16.1151 206.837 16.0147C206.773 15.9144 206.606 15.8642 206.323 15.8266C205.912 15.8015 205.501 15.7388 205.116 15.6385C205.077 15.5883 205.052 15.5131 205.052 15.4504L205.373 15.4378H205.874L206.297 15.4504L207.762 15.4755C208.43 15.4755 209.2 15.4378 210.086 15.3626ZM208.288 20.0905L208.275 20.9057C208.275 22.7743 208.301 23.8152 208.352 24.0284C208.404 24.2416 208.545 24.4171 208.789 24.5676C209.033 24.7306 209.444 24.8059 210.009 24.8059C210.87 24.8059 211.538 24.5551 212.026 24.066C212.527 23.5769 212.771 23.0251 212.771 22.398C212.771 21.6581 212.514 21.0812 211.987 20.6549C211.474 20.2535 210.793 20.0404 209.958 20.0404C209.072 20.0404 208.519 20.0529 208.288 20.0905ZM214.094 25.0442C214.196 25.0065 214.325 24.9815 214.44 24.9689C214.659 24.9564 214.916 24.9313 215.185 24.8937H215.262C215.596 24.8561 215.802 24.7683 215.879 24.6303C215.969 24.4798 216.007 23.8528 216.007 22.7366L215.995 21.8588L215.969 18.2846L215.995 17.0932C215.995 16.8173 215.969 16.5038 215.943 16.1527C215.917 16.0774 215.879 16.0022 215.84 15.9395C215.699 15.8392 215.365 15.7765 214.851 15.7388C214.466 15.7012 214.248 15.6761 214.184 15.6385C214.132 15.6134 214.094 15.5256 214.094 15.3877L215.558 15.4128L216.855 15.4378L219 15.3877C219 15.4755 218.987 15.5507 218.974 15.626C218.923 15.6385 218.743 15.6636 218.448 15.7012C217.934 15.7639 217.613 15.8266 217.472 15.8893C217.33 15.9646 217.253 16.5038 217.253 17.5071L217.292 22.1598L217.279 22.4984L217.266 22.8997C217.266 23.7775 217.292 24.2917 217.343 24.4547C217.382 24.6052 217.497 24.7306 217.677 24.8059C217.87 24.8686 218.101 24.9188 218.371 24.9313C218.717 24.9438 218.897 24.9689 218.936 25.0442C218.961 25.1069 218.961 25.1696 218.961 25.2574L217.895 25.2824L217.202 25.2574L216.123 25.2699H214.119L214.094 25.0442Z" fill="#343434"/>
<path d="M119.345 37.7983C120.064 37.6227 120.591 37.3969 120.899 37.1461C121.22 36.8828 121.515 36.5065 121.785 36.0174C122.35 34.9891 122.736 34.3244 122.967 34.0485C123.198 33.7601 123.455 33.5218 123.737 33.3212C124.007 33.133 124.303 33.0327 124.585 33.0327C124.893 33.0327 125.137 33.1205 125.33 33.2961C125.523 33.4716 125.613 33.6598 125.613 33.8855C125.613 34.0611 125.561 34.2366 125.433 34.4122C125.317 34.5878 125.137 34.6756 124.906 34.6756C124.547 34.6756 124.277 34.4749 124.097 34.0736C124.007 33.8855 123.93 33.7852 123.84 33.7852C123.75 33.7852 123.622 33.8604 123.429 33.9984C123.249 34.1363 122.877 34.7007 122.325 35.6914C122.029 36.2306 121.772 36.6445 121.528 36.958C121.297 37.2715 120.925 37.5224 120.411 37.7105C120.873 37.723 121.246 37.7857 121.515 37.8986C121.772 38.024 122.068 38.2372 122.376 38.5507C122.684 38.8642 123.365 39.7672 124.418 41.2721C124.752 41.7486 125.035 42.0998 125.266 42.313C125.497 42.5136 125.805 42.6516 126.191 42.6892C126.447 42.7268 126.589 42.7519 126.627 42.777C126.679 42.7895 126.704 42.8271 126.704 42.8773L126.691 42.9776C126.691 43.0153 126.666 43.0403 126.614 43.0403C126.332 43.0403 125.985 43.0278 125.561 43.0027C125.304 42.9902 125.086 42.9776 124.919 42.9776C124.714 42.9776 124.431 43.0027 124.071 43.0403C123.596 42.2628 123.005 41.3975 122.299 40.4068C121.592 39.4286 121.066 38.8266 120.719 38.6009C120.372 38.3626 119.91 38.2497 119.345 38.2372L119.332 39.3659C119.332 39.6794 119.345 40.0305 119.358 40.4444C119.383 40.9084 119.396 41.4602 119.396 42.0998C119.396 42.313 119.473 42.476 119.627 42.5513C119.794 42.639 120.038 42.6892 120.385 42.7268C120.501 42.7394 120.591 42.7519 120.668 42.777C120.693 42.8397 120.706 42.8899 120.706 42.94C120.706 42.9902 120.681 43.0278 120.616 43.0654L120.359 43.078C120.257 43.078 120.013 43.0654 119.602 43.0278C119.204 42.9902 118.908 42.9776 118.715 42.9776C118.548 42.9776 118.343 42.9902 118.086 43.0278C117.752 43.0529 117.328 43.0654 116.776 43.0654H116.545L116.532 42.8397C116.558 42.8021 116.583 42.777 116.648 42.7645C117.174 42.7143 117.598 42.6265 117.893 42.4885C117.996 42.4008 118.06 42.2503 118.06 42.012L118.048 41.2721V39.8424L118.06 39.2279L118.009 37.0834L118.035 35.7039L118.009 34.5878C118.009 34.1112 117.971 33.8228 117.881 33.7225C117.804 33.6598 117.649 33.6221 117.444 33.5971L117.315 33.5845C117.213 33.572 117.033 33.5469 116.763 33.5343C116.699 33.4842 116.66 33.4215 116.66 33.3588C116.66 33.3337 116.673 33.2961 116.686 33.2459L117.097 33.2208C118.561 33.2208 119.563 33.1957 120.115 33.1581C120.27 33.1707 120.475 33.1832 120.732 33.1832C120.796 33.2083 120.822 33.2459 120.822 33.2835C120.822 33.3212 120.822 33.3462 120.809 33.3839C120.783 33.4089 120.668 33.434 120.449 33.4716C120.013 33.5093 119.717 33.5971 119.576 33.7225C119.422 33.8479 119.358 34.0485 119.358 34.337V34.4875L119.345 37.3593V37.7983ZM127.449 38.0616C127.449 37.5349 127.513 37.0709 127.642 36.657C127.77 36.2557 127.989 35.8043 128.297 35.3277C128.605 34.8511 128.978 34.4624 129.402 34.1363C129.838 33.8102 130.429 33.5344 131.2 33.2835C131.726 33.1205 132.407 33.0327 133.229 33.0327C133.781 33.0327 134.321 33.0954 134.847 33.2459C135.374 33.3964 135.862 33.5845 136.286 33.8479C136.722 34.0987 137.146 34.5 137.583 35.0267C137.878 35.4029 138.11 35.8043 138.264 36.2306C138.456 36.7824 138.559 37.3593 138.559 37.9613C138.559 38.6385 138.495 39.2028 138.354 39.6418C138.225 40.0932 138.007 40.5322 137.686 40.9711C137.442 41.3097 137.018 41.6985 136.414 42.1374C136.016 42.4384 135.515 42.6767 134.924 42.8648C134.334 43.0403 133.691 43.1407 132.998 43.1407C132.304 43.1407 131.675 43.0529 131.135 42.8899C130.583 42.7394 130.121 42.5387 129.761 42.313C129.402 42.0872 129.016 41.7486 128.631 41.2972C128.246 40.8582 127.95 40.3566 127.757 39.8173C127.552 39.2781 127.449 38.6887 127.449 38.0616ZM132.934 42.8522C133.37 42.8522 133.833 42.7895 134.308 42.6641C134.783 42.5513 135.207 42.3506 135.567 42.0622C135.939 41.7863 136.222 41.4727 136.44 41.109C136.645 40.7579 136.812 40.2939 136.941 39.7421C137.056 39.1778 137.121 38.6134 137.121 38.0616C137.121 37.3593 137.018 36.6696 136.812 35.9798C136.645 35.4656 136.376 35.0016 136.016 34.6003C135.644 34.1865 135.207 33.873 134.68 33.6472C134.154 33.4215 133.601 33.3086 133.011 33.3086C132.535 33.3086 132.073 33.3964 131.611 33.5469C131.148 33.6974 130.776 33.898 130.48 34.1363C130.185 34.3746 129.915 34.7132 129.658 35.1521C129.414 35.5911 129.222 36.0802 129.093 36.6069C128.952 37.1336 128.888 37.5976 128.888 38.0115C128.888 38.4378 128.952 38.9144 129.093 39.4537C129.222 39.9929 129.402 40.4569 129.633 40.8582C129.851 41.247 130.134 41.5981 130.468 41.9117C130.801 42.2127 131.187 42.4509 131.598 42.614C132.009 42.7644 132.458 42.8522 132.934 42.8522ZM148.654 33.572C148.719 33.9607 148.757 34.362 148.757 34.7759C148.757 34.8511 148.744 34.964 148.744 35.102C148.667 35.1145 148.616 35.127 148.577 35.127C148.552 35.127 148.5 35.127 148.449 35.1145C148.231 34.5125 147.871 34.0611 147.37 33.735C146.869 33.4089 146.253 33.2459 145.508 33.2459C145.122 33.2459 144.801 33.2961 144.532 33.3839C144.056 33.5344 143.632 33.7601 143.286 34.036C142.926 34.3119 142.618 34.6505 142.374 35.0393C142.13 35.428 141.924 35.892 141.783 36.4438C141.642 36.9956 141.565 37.56 141.565 38.1369C141.565 39.2279 141.744 40.1309 142.078 40.8457C142.425 41.5605 142.888 42.0747 143.491 42.3757C144.082 42.6767 144.686 42.8397 145.289 42.8397L145.649 42.8272C146.073 42.777 146.355 42.7268 146.509 42.6767C146.895 42.5763 147.216 42.4509 147.46 42.3004C147.717 42.1499 147.961 41.9493 148.205 41.6859C148.436 41.41 148.642 41.1091 148.809 40.7579L148.911 40.7203C148.937 40.7203 148.975 40.7328 149.027 40.7704C149.027 40.8959 149.014 40.9711 149.014 41.0087C148.783 41.874 148.629 42.4635 148.526 42.777C148.436 42.8021 148.333 42.8271 148.205 42.8773C147.588 43.078 146.766 43.1783 145.739 43.1783C144.917 43.1783 144.287 43.1281 143.876 43.0153C143.465 42.9024 143.016 42.7394 142.528 42.5011C142.04 42.2754 141.616 41.9618 141.243 41.5731C140.884 41.1968 140.588 40.7077 140.357 40.1183C140.126 39.5414 140.023 38.9019 140.023 38.1996C140.023 37.5474 140.113 36.9706 140.293 36.4815C140.46 36.0049 140.743 35.5033 141.115 35.0016C141.488 34.5 141.924 34.0861 142.438 33.7475C142.939 33.4215 143.504 33.1832 144.121 33.0453C144.557 32.9575 145.174 32.9073 145.983 32.9073C146.561 32.9073 147.113 32.9826 147.627 33.133C148.141 33.2835 148.487 33.4215 148.654 33.572ZM149.875 34.2743L150.196 33.108C150.221 32.9575 150.247 32.8571 150.286 32.807C150.324 32.7694 150.363 32.7443 150.414 32.7443C150.504 32.7443 150.607 32.8571 150.722 33.0829C150.812 33.2334 150.889 33.3462 150.953 33.3839C151.005 33.4215 151.095 33.4591 151.197 33.4716L151.275 33.4591L151.621 33.4967L153.484 33.5218L155.667 33.5093H156.322L157.542 33.4842C157.594 33.4842 157.658 33.4967 157.735 33.5093C158.095 33.5344 158.313 33.5469 158.403 33.5469C158.48 33.5469 158.544 33.5218 158.583 33.4716C158.608 33.4591 158.685 33.2835 158.852 32.97C158.917 32.8195 159.007 32.7443 159.096 32.7443C159.148 32.7443 159.199 32.7568 159.263 32.7819C159.289 32.8822 159.302 32.97 159.302 33.0453L159.289 33.3588L159.302 34.0109C159.302 34.1614 159.289 34.6756 159.263 35.5284C159.263 35.5911 159.251 35.6412 159.225 35.6914C159.173 35.729 159.122 35.7415 159.084 35.7415C159.032 35.7415 158.994 35.729 158.968 35.6788C158.929 35.6412 158.891 35.5284 158.852 35.3277C158.75 34.8762 158.608 34.5502 158.454 34.3495C158.351 34.2241 158.197 34.1363 158.005 34.0736C157.812 34.0234 157.337 33.9858 156.592 33.9858C156.001 33.9858 155.552 33.9858 155.269 33.9858C155.256 34.199 155.256 34.3871 155.256 34.5502L155.307 39.3282C155.307 39.5164 155.307 39.88 155.282 40.4068L155.295 41.4226L155.282 41.9995C155.282 42.175 155.307 42.3004 155.372 42.3757C155.436 42.4509 155.616 42.5387 155.885 42.6014C156.374 42.7268 156.695 42.7895 156.862 42.8146C156.964 42.8272 157.041 42.8522 157.106 42.8899V43.1407L155.988 43.1031C155.372 43.1031 154.909 43.0905 154.588 43.0654L153.445 43.1156L152.597 43.1658C152.353 43.1658 152.212 43.1658 152.161 43.1532L152.058 43.1031C152.058 42.9902 152.084 42.9149 152.122 42.8773C152.161 42.8522 152.251 42.8272 152.418 42.8021C152.636 42.777 152.893 42.7143 153.201 42.639C153.497 42.5638 153.702 42.476 153.792 42.4008C153.843 42.3506 153.882 42.2754 153.908 42.1625C153.946 41.9367 153.972 41.4978 153.972 40.8332V39.5164L153.946 36.6696L153.908 36.0551L153.895 33.9858C153.574 33.9858 153.15 33.9858 152.636 33.9858C151.878 33.9858 151.416 34.036 151.249 34.1238C150.992 34.2617 150.607 34.6756 150.093 35.3528C149.926 35.6036 149.785 35.729 149.656 35.729L149.579 35.7039C149.566 35.6788 149.553 35.6538 149.553 35.6287C149.553 35.566 149.592 35.3779 149.682 35.0769C149.785 34.6756 149.849 34.4122 149.875 34.2743ZM159.854 33.133C159.957 33.1205 160.008 33.108 160.047 33.108C160.214 33.108 160.509 33.1205 160.92 33.1581C161.139 33.1707 161.28 33.1707 161.357 33.1707C161.473 33.1707 161.717 33.1581 162.102 33.1456L163.438 33.0578C163.784 33.0327 164.195 33.0202 164.658 33.0202C165.48 33.0202 166.148 33.133 166.636 33.3588C167.124 33.5845 167.496 33.9482 167.766 34.4248C168.023 34.9138 168.164 35.4029 168.164 35.892C168.164 36.6947 167.869 37.3844 167.291 37.9738C166.713 38.5507 165.929 38.8517 164.953 38.8517C164.683 38.8517 164.452 38.8266 164.272 38.7639C164.093 38.7137 163.874 38.6134 163.643 38.4504C163.54 38.3877 163.476 38.325 163.463 38.2497C163.476 38.2121 163.515 38.187 163.54 38.1745C163.617 38.1745 163.695 38.187 163.772 38.2121C163.951 38.2748 164.183 38.3124 164.452 38.3124C164.863 38.3124 165.261 38.2121 165.634 38.0115C166.006 37.8108 166.276 37.5224 166.469 37.1587C166.661 36.7824 166.751 36.3937 166.751 35.9798C166.751 35.5785 166.649 35.1897 166.456 34.8135C166.25 34.4373 165.994 34.1363 165.672 33.9106C165.48 33.7852 165.21 33.6723 164.825 33.5845C164.452 33.4967 164.157 33.4591 163.939 33.4591C163.296 33.4591 162.911 33.5093 162.795 33.5971L162.783 33.6974L162.808 34.5752L162.795 34.7257C162.783 34.8637 162.783 35.0769 162.783 35.3653C162.783 36.4188 162.795 37.0709 162.834 37.3217V37.7481L162.924 41.2721C162.924 41.3222 162.924 41.4226 162.911 41.5605C162.898 41.6985 162.885 41.8239 162.885 41.9242C162.885 42.175 162.911 42.3506 162.95 42.4885C163.078 42.5262 163.438 42.6014 164.054 42.7394C164.337 42.8021 164.491 42.8397 164.517 42.8522C164.555 42.8648 164.594 42.9024 164.619 42.9526C164.606 43.0278 164.568 43.078 164.542 43.1031C164.504 43.1281 164.439 43.1407 164.337 43.1407C164.272 43.1407 164.131 43.1156 163.9 43.0905C163.45 43.0529 163.091 43.0278 162.834 43.0278L161.46 43.0905L160.625 43.0654C160.573 43.0654 160.419 43.078 160.175 43.0905L160.162 42.8773L161.19 42.6892C161.357 42.639 161.46 42.6014 161.498 42.5513C161.55 42.476 161.575 42.3381 161.575 42.1249C161.575 42.0872 161.575 41.9744 161.575 41.8239C161.588 41.7236 161.588 41.5731 161.588 41.3724C161.588 40.7704 161.562 39.4787 161.524 37.4973C161.498 36.5692 161.485 35.6287 161.485 34.6756V34.5376C161.485 34.1739 161.434 33.9357 161.318 33.8479C161.126 33.6723 160.638 33.5344 159.854 33.4215C159.829 33.3713 159.816 33.3212 159.816 33.2835C159.816 33.2459 159.829 33.1957 159.854 33.133ZM169.333 38.0616C169.333 37.5349 169.397 37.0709 169.526 36.657C169.654 36.2557 169.872 35.8043 170.168 35.3277C170.476 34.8511 170.849 34.4624 171.272 34.1363C171.709 33.8102 172.3 33.5344 173.071 33.2835C173.61 33.1205 174.278 33.0327 175.1 33.0327C175.652 33.0327 176.192 33.0954 176.731 33.2459C177.258 33.3964 177.733 33.5845 178.17 33.8479C178.593 34.0987 179.03 34.5 179.454 35.0267C179.762 35.4029 179.98 35.8043 180.135 36.2306C180.34 36.7824 180.43 37.3593 180.43 37.9613C180.43 38.6385 180.366 39.2028 180.237 39.6418C180.096 40.0932 179.878 40.5322 179.557 40.9711C179.313 41.3097 178.889 41.6985 178.285 42.1374C177.887 42.4384 177.399 42.6767 176.795 42.8648C176.204 43.0403 175.562 43.1407 174.869 43.1407C174.175 43.1407 173.546 43.0529 173.006 42.8899C172.454 42.7394 172.004 42.5387 171.632 42.313C171.272 42.0872 170.9 41.7486 170.502 41.2972C170.116 40.8582 169.834 40.3566 169.628 39.8173C169.423 39.2781 169.333 38.6887 169.333 38.0616ZM174.804 42.8522C175.241 42.8522 175.703 42.7895 176.179 42.6641C176.654 42.5513 177.078 42.3506 177.45 42.0622C177.81 41.7863 178.105 41.4727 178.311 41.109C178.516 40.7579 178.683 40.2939 178.812 39.7421C178.94 39.1778 179.004 38.6134 179.004 38.0616C179.004 37.3593 178.889 36.6696 178.683 35.9798C178.516 35.4656 178.259 35.0016 177.887 34.6003C177.514 34.1865 177.078 33.873 176.551 33.6472C176.037 33.4215 175.485 33.3086 174.894 33.3086C174.406 33.3086 173.944 33.3964 173.481 33.5469C173.032 33.6974 172.647 33.898 172.364 34.1363C172.069 34.3746 171.786 34.7132 171.542 35.1521C171.285 35.5911 171.093 36.0802 170.964 36.6069C170.836 37.1336 170.771 37.5976 170.771 38.0115C170.771 38.4378 170.836 38.9144 170.964 39.4537C171.093 39.9929 171.272 40.4569 171.504 40.8582C171.735 41.247 172.017 41.5981 172.351 41.9117C172.685 42.2127 173.058 42.4509 173.469 42.614C173.893 42.7644 174.329 42.8522 174.804 42.8522ZM181.316 42.8021C181.483 42.7017 181.766 42.6265 182.19 42.5763C182.524 42.5638 182.729 42.5387 182.793 42.4885C182.832 42.4635 182.857 42.4258 182.883 42.3757C182.96 42.1876 183.024 41.6608 183.05 40.8206C183.102 39.7295 183.179 38.2748 183.281 36.4564C183.371 35.0769 183.41 34.2116 183.41 33.8604V33.6598C183.037 33.5971 182.434 33.5218 181.612 33.434C181.56 33.3588 181.535 33.3086 181.535 33.2584C181.535 33.2334 181.56 33.1957 181.599 33.1205C181.689 33.0954 181.753 33.0829 181.804 33.0829C181.843 33.0829 181.933 33.0829 182.074 33.0954C182.331 33.133 182.691 33.1456 183.14 33.1456C183.281 33.1456 183.538 33.133 183.898 33.108C184.155 33.0829 184.296 33.0829 184.322 33.0829C184.412 33.0829 184.501 33.0954 184.617 33.1205C184.668 33.1832 184.694 33.2334 184.72 33.271L185.054 33.9984L187.276 38.8141L188.213 40.8206C188.945 39.416 189.511 38.1619 189.909 37.0709C189.947 36.9956 189.973 36.9204 190.011 36.8451C190.063 36.7574 190.101 36.6696 190.14 36.5567C190.191 36.4438 190.358 36.0425 190.654 35.3277C190.769 35.0393 190.872 34.801 190.949 34.5878C191.245 33.7726 191.424 33.3086 191.476 33.1832C191.578 33.1456 191.656 33.1205 191.733 33.1205C191.822 33.1205 191.925 33.133 192.054 33.1456C192.349 33.1581 192.837 33.1707 193.492 33.1707C193.903 33.1707 194.237 33.1707 194.507 33.1581C194.507 33.2083 194.52 33.2584 194.52 33.2835C194.52 33.3086 194.507 33.3588 194.494 33.4215C194.327 33.5093 194.122 33.5594 193.89 33.572C193.428 33.5971 193.133 33.6347 193.004 33.6723C192.876 33.7225 192.799 33.7852 192.76 33.8604C192.734 33.9231 192.696 34.1614 192.67 34.5627L192.683 34.9138L192.67 35.2775C192.67 36.0551 192.696 37.3342 192.734 39.1527L192.722 40.6576L192.734 41.6232C192.734 41.9995 192.747 42.2252 192.786 42.2879C192.824 42.3631 192.927 42.4258 193.107 42.4885C193.389 42.5763 193.852 42.6767 194.481 42.777C194.52 42.8021 194.545 42.8271 194.545 42.8773C194.545 42.9275 194.545 42.9776 194.533 43.0278H194.173C193.865 43.0278 193.518 43.0278 193.158 43.0027C192.799 42.9902 192.606 42.9776 192.58 42.9776C191.501 42.9776 190.782 42.9902 190.435 43.0153C190.217 43.0278 190.076 43.0403 190.024 43.0403C189.986 43.0403 189.947 43.0278 189.896 43.0027V42.9024C189.896 42.8648 189.909 42.8146 189.922 42.7519C190.101 42.6892 190.333 42.639 190.641 42.614C190.975 42.5262 191.206 42.4258 191.36 42.3381C191.411 42.1374 191.437 41.7361 191.437 41.1467L191.424 39.5916C191.424 39.416 191.424 39.1025 191.45 38.6385C191.463 38.187 191.463 37.4346 191.463 36.3937C191.463 35.566 191.45 34.9389 191.424 34.5125C191.334 34.7007 191.155 35.0894 190.885 35.6914L190.769 35.9798L190.756 36.03L189.575 38.7263L189.151 39.7672L188.612 41.0213C188.367 41.6107 188.162 42.1249 187.995 42.5638C187.918 42.777 187.867 42.94 187.815 43.0529L187.648 43.0403C187.057 41.3473 186.351 39.6041 185.529 37.8233C184.694 36.0425 184.116 34.8762 183.782 34.2993C183.744 34.5251 183.705 35.1647 183.641 36.2306C183.577 37.5224 183.538 38.9395 183.538 40.4945C183.538 40.9836 183.577 41.5229 183.654 42.1249C183.667 42.3004 183.744 42.4258 183.885 42.5011C184.013 42.5889 184.347 42.639 184.9 42.6516C185.118 42.6516 185.311 42.6641 185.503 42.6892C185.542 42.777 185.555 42.8271 185.555 42.8773C185.555 42.9024 185.542 42.94 185.516 43.0027L183.063 42.94C182.883 42.94 182.601 42.9526 182.228 42.9776C182.023 42.9902 181.714 43.0027 181.316 43.0027V42.8021ZM200.004 33.0954L199.927 33.3588L198.951 33.572C198.655 33.6221 198.463 33.6974 198.386 33.7726C198.296 33.8479 198.232 33.9984 198.193 34.2366C198.154 34.4624 198.142 34.9013 198.142 35.5534C198.142 35.7917 198.167 36.2432 198.193 36.8953V37.0583L198.219 37.3719C198.707 37.3092 199.4 37.2715 200.312 37.2715C201.789 37.2715 202.791 37.5349 203.305 38.0491C203.806 38.5632 204.063 39.2154 204.063 39.9929C204.063 40.8206 203.69 41.5104 202.945 42.0872C202.2 42.6516 201.237 42.94 200.043 42.94H198.874L198.514 42.9526C198.129 42.9651 197.795 42.9776 197.499 42.9776L195.83 42.9902C195.624 42.9902 195.444 42.9902 195.29 42.9651C195.29 42.94 195.29 42.9149 195.29 42.8899C195.29 42.7895 195.355 42.7268 195.509 42.6892C196.177 42.5638 196.549 42.4635 196.639 42.4008C196.742 42.3506 196.806 42.2127 196.832 41.9744C196.87 41.7361 196.896 41.2846 196.896 40.5949L196.87 39.6919L196.857 36.3184L196.832 34.8135V34.4248C196.832 34.0736 196.806 33.8479 196.742 33.7475C196.677 33.6472 196.51 33.5971 196.228 33.572C195.817 33.5344 195.419 33.4716 195.021 33.3713C194.982 33.3212 194.956 33.2459 194.956 33.1832L195.29 33.1707H195.778L196.202 33.1832L197.679 33.2083C198.347 33.2083 199.118 33.1707 200.004 33.0954ZM198.193 37.8233V38.6385C198.193 40.5071 198.219 41.548 198.27 41.7612C198.321 41.9744 198.463 42.1499 198.707 42.3004C198.951 42.4635 199.349 42.5387 199.927 42.5387C200.775 42.5387 201.455 42.2879 201.943 41.7988C202.431 41.3222 202.676 40.7579 202.676 40.1309C202.676 39.3909 202.419 38.8141 201.905 38.4002C201.391 37.9864 200.71 37.7732 199.876 37.7732C198.989 37.7732 198.437 37.7983 198.193 37.8233ZM203.998 42.777C204.114 42.7394 204.23 42.7143 204.358 42.7017C204.576 42.6892 204.82 42.6641 205.09 42.6265H205.167C205.501 42.5889 205.707 42.5011 205.797 42.3631C205.874 42.2252 205.912 41.5981 205.912 40.4695V39.5916L205.886 36.0174L205.899 34.8261C205.899 34.5502 205.886 34.2366 205.848 33.8855C205.822 33.8102 205.797 33.735 205.758 33.6723C205.604 33.5845 205.283 33.5093 204.756 33.4716C204.371 33.434 204.153 33.4089 204.101 33.3713C204.037 33.3462 204.011 33.2584 203.998 33.1205L205.475 33.1456L206.76 33.1707L208.905 33.1205C208.905 33.2083 208.905 33.2835 208.892 33.3588C208.841 33.3713 208.661 33.3964 208.365 33.434C207.852 33.4967 207.518 33.5594 207.376 33.6347C207.235 33.6974 207.171 34.2366 207.171 35.2399L207.197 39.8926V40.2312L207.184 40.6325C207.184 41.5104 207.209 42.0245 207.248 42.1876C207.299 42.3381 207.415 42.4635 207.595 42.5387C207.775 42.614 208.006 42.6516 208.288 42.6641C208.622 42.6767 208.815 42.7143 208.841 42.777C208.866 42.8397 208.879 42.9024 208.879 42.9902L207.813 43.0153L207.119 42.9902L206.028 43.0027H204.024L203.998 42.777Z" fill="#343434"/>
<path d="M162.718 51.355C182.19 51.355 199.503 52.5965 210.51 54.1014C200.376 52.3582 182.755 50.6276 162.718 50.6276C142.682 50.6276 125.06 52.3582 114.927 54.1014C125.934 52.5965 143.247 51.355 162.718 51.355Z" fill="#343434"/>
</svg>
